%YAML 1.1
%TAG !u! tag:unity3d.com,2011:
--- !u!29 &1
OcclusionCullingSettings:
  m_ObjectHideFlags: 0
  serializedVersion: 2
  m_OcclusionBakeSettings:
    smallestOccluder: 5
    smallestHole: 0.25
    backfaceThreshold: 100
  m_SceneGUID: 00000000000000000000000000000000
  m_OcclusionCullingData: {fileID: 0}
--- !u!104 &2
RenderSettings:
  m_ObjectHideFlags: 0
  serializedVersion: 9
  m_Fog: 0
  m_FogColor: {r: 0.5, g: 0.5, b: 0.5, a: 1}
  m_FogMode: 3
  m_FogDensity: 0.01
  m_LinearFogStart: 0
  m_LinearFogEnd: 300
  m_AmbientSkyColor: {r: 0.212, g: 0.227, b: 0.259, a: 1}
  m_AmbientEquatorColor: {r: 0.114, g: 0.125, b: 0.133, a: 1}
  m_AmbientGroundColor: {r: 0.047, g: 0.043, b: 0.035, a: 1}
  m_AmbientIntensity: 1
  m_AmbientMode: 3
  m_SubtractiveShadowColor: {r: 0.42, g: 0.478, b: 0.627, a: 1}
  m_SkyboxMaterial: {fileID: 0}
  m_HaloStrength: 0.5
  m_FlareStrength: 1
  m_FlareFadeSpeed: 3
  m_HaloTexture: {fileID: 0}
  m_SpotCookie: {fileID: 10001, guid: 0000000000000000e000000000000000, type: 0}
  m_DefaultReflectionMode: 0
  m_DefaultReflectionResolution: 128
  m_ReflectionBounces: 1
  m_ReflectionIntensity: 1
  m_CustomReflection: {fileID: 0}
  m_Sun: {fileID: 0}
  m_IndirectSpecularColor: {r: 0, g: 0, b: 0, a: 1}
  m_UseRadianceAmbientProbe: 0
--- !u!157 &3
LightmapSettings:
  m_ObjectHideFlags: 0
  serializedVersion: 11
  m_GIWorkflowMode: 1
  m_GISettings:
    serializedVersion: 2
    m_BounceScale: 1
    m_IndirectOutputScale: 1
    m_AlbedoBoost: 1
    m_TemporalCoherenceThreshold: 1
    m_EnvironmentLightingMode: 0
    m_EnableBakedLightmaps: 0
    m_EnableRealtimeLightmaps: 0
  m_LightmapEditorSettings:
    serializedVersion: 10
    m_Resolution: 2
    m_BakeResolution: 40
    m_AtlasSize: 1024
    m_AO: 0
    m_AOMaxDistance: 1
    m_CompAOExponent: 1
    m_CompAOExponentDirect: 0
    m_Padding: 2
    m_LightmapParameters: {fileID: 0}
    m_LightmapsBakeMode: 1
    m_TextureCompression: 1
    m_FinalGather: 0
    m_FinalGatherFiltering: 1
    m_FinalGatherRayCount: 256
    m_ReflectionCompression: 2
    m_MixedBakeMode: 2
    m_BakeBackend: 0
    m_PVRSampling: 1
    m_PVRDirectSampleCount: 32
    m_PVRSampleCount: 500
    m_PVRBounces: 2
    m_PVRFilterTypeDirect: 0
    m_PVRFilterTypeIndirect: 0
    m_PVRFilterTypeAO: 0
    m_PVRFilteringMode: 1
    m_PVRCulling: 1
    m_PVRFilteringGaussRadiusDirect: 1
    m_PVRFilteringGaussRadiusIndirect: 5
    m_PVRFilteringGaussRadiusAO: 2
    m_PVRFilteringAtrousPositionSigmaDirect: 0.5
    m_PVRFilteringAtrousPositionSigmaIndirect: 2
    m_PVRFilteringAtrousPositionSigmaAO: 1
    m_ShowResolutionOverlay: 1
  m_LightingDataAsset: {fileID: 112000002, guid: 84cbd91f2044ea6438bea6fad8be3d8f,
    type: 2}
  m_UseShadowmask: 1
--- !u!196 &4
NavMeshSettings:
  serializedVersion: 2
  m_ObjectHideFlags: 0
  m_BuildSettings:
    serializedVersion: 2
    agentTypeID: 0
    agentRadius: 0.5
    agentHeight: 2
    agentSlope: 45
    agentClimb: 0.4
    ledgeDropHeight: 0
    maxJumpAcrossDistance: 0
    minRegionArea: 2
    manualCellSize: 0
    cellSize: 0.16666667
    manualTileSize: 0
    tileSize: 256
    accuratePlacement: 0
    debug:
      m_Flags: 0
  m_NavMeshData: {fileID: 0}
--- !u!1001 &447347164
Prefab:
  m_ObjectHideFlags: 0
  serializedVersion: 2
  m_Modification:
    m_TransformParent: {fileID: 0}
    m_Modifications:
    - target: {fileID: 4202311228191906, guid: 23f07fdd222d417468527642025566ab, type: 2}
      propertyPath: m_LocalPosition.x
      value: 4
      objectReference: {fileID: 0}
    - target: {fileID: 4202311228191906, guid: 23f07fdd222d417468527642025566ab, type: 2}
      propertyPath: m_LocalPosition.y
      value: 4
      objectReference: {fileID: 0}
    - target: {fileID: 4202311228191906, guid: 23f07fdd222d417468527642025566ab, type: 2}
      propertyPath: m_LocalPosition.z
      value: -16
      objectReference: {fileID: 0}
    - target: {fileID: 4202311228191906, guid: 23f07fdd222d417468527642025566ab, type: 2}
      propertyPath: m_LocalRotation.x
      value: 0
      objectReference: {fileID: 0}
    - target: {fileID: 4202311228191906, guid: 23f07fdd222d417468527642025566ab, type: 2}
      propertyPath: m_LocalRotation.y
      value: 0
      objectReference: {fileID: 0}
    - target: {fileID: 4202311228191906, guid: 23f07fdd222d417468527642025566ab, type: 2}
      propertyPath: m_LocalRotation.z
      value: 0
      objectReference: {fileID: 0}
    - target: {fileID: 4202311228191906, guid: 23f07fdd222d417468527642025566ab, type: 2}
      propertyPath: m_LocalRotation.w
      value: 1
      objectReference: {fileID: 0}
    - target: {fileID: 4202311228191906, guid: 23f07fdd222d417468527642025566ab, type: 2}
      propertyPath: m_RootOrder
      value: 0
      objectReference: {fileID: 0}
    - target: {fileID: 20339886389628114, guid: 23f07fdd222d417468527642025566ab,
        type: 2}
      propertyPath: m_RenderingPath
      value: 1
      objectReference: {fileID: 0}
    - target: {fileID: 20339886389628114, guid: 23f07fdd222d417468527642025566ab,
        type: 2}
      propertyPath: orthographic
      value: 1
      objectReference: {fileID: 0}
    - target: {fileID: 20339886389628114, guid: 23f07fdd222d417468527642025566ab,
        type: 2}
      propertyPath: m_AllowMSAA
      value: 1
      objectReference: {fileID: 0}
    - target: {fileID: 20339886389628114, guid: 23f07fdd222d417468527642025566ab,
        type: 2}
      propertyPath: m_CullingMask.m_Bits
      value: 4294967295
      objectReference: {fileID: 0}
    - target: {fileID: 20339886389628114, guid: 23f07fdd222d417468527642025566ab,
        type: 2}
      propertyPath: m_OcclusionCulling
      value: 0
      objectReference: {fileID: 0}
    m_RemovedComponents:
    - {fileID: 92788704005870882, guid: 23f07fdd222d417468527642025566ab, type: 2}
  m_SourcePrefab: {fileID: 100100000, guid: 23f07fdd222d417468527642025566ab, type: 2}
  m_IsPrefabAsset: 0
--- !u!1001 &671810669
Prefab:
  m_ObjectHideFlags: 0
  serializedVersion: 2
  m_Modification:
    m_TransformParent: {fileID: 0}
    m_Modifications:
    - target: {fileID: 4369610607385724, guid: 71f677c882f3fd546a3a562625c228ef, type: 2}
      propertyPath: m_LocalPosition.x
      value: 0
      objectReference: {fileID: 0}
    - target: {fileID: 4369610607385724, guid: 71f677c882f3fd546a3a562625c228ef, type: 2}
      propertyPath: m_LocalPosition.y
      value: 0
      objectReference: {fileID: 0}
    - target: {fileID: 4369610607385724, guid: 71f677c882f3fd546a3a562625c228ef, type: 2}
      propertyPath: m_LocalPosition.z
      value: 0
      objectReference: {fileID: 0}
    - target: {fileID: 4369610607385724, guid: 71f677c882f3fd546a3a562625c228ef, type: 2}
      propertyPath: m_LocalRotation.x
      value: 0
      objectReference: {fileID: 0}
    - target: {fileID: 4369610607385724, guid: 71f677c882f3fd546a3a562625c228ef, type: 2}
      propertyPath: m_LocalRotation.y
      value: 0
      objectReference: {fileID: 0}
    - target: {fileID: 4369610607385724, guid: 71f677c882f3fd546a3a562625c228ef, type: 2}
      propertyPath: m_LocalRotation.z
      value: 0
      objectReference: {fileID: 0}
    - target: {fileID: 4369610607385724, guid: 71f677c882f3fd546a3a562625c228ef, type: 2}
      propertyPath: m_LocalRotation.w
      value: 1
      objectReference: {fileID: 0}
    - target: {fileID: 4369610607385724, guid: 71f677c882f3fd546a3a562625c228ef, type: 2}
      propertyPath: m_RootOrder
      value: 3
      objectReference: {fileID: 0}
    - target: {fileID: 114322617617327302, guid: 71f677c882f3fd546a3a562625c228ef,
        type: 2}
      propertyPath: isScoreLimitSet
      value: 1
      objectReference: {fileID: 0}
    - target: {fileID: 114322617617327302, guid: 71f677c882f3fd546a3a562625c228ef,
        type: 2}
      propertyPath: scoreLimit
      value: 1000
      objectReference: {fileID: 0}
    m_RemovedComponents: []
  m_SourcePrefab: {fileID: 100100000, guid: 71f677c882f3fd546a3a562625c228ef, type: 2}
  m_IsPrefabAsset: 0
--- !u!1001 &731056200
Prefab:
  m_ObjectHideFlags: 0
  serializedVersion: 2
  m_Modification:
    m_TransformParent: {fileID: 0}
    m_Modifications:
    - target: {fileID: 4650017824234140, guid: abbc1cb75e6a4ad4fbaad59d847701d7, type: 2}
      propertyPath: m_LocalPosition.x
      value: 0
      objectReference: {fileID: 0}
    - target: {fileID: 4650017824234140, guid: abbc1cb75e6a4ad4fbaad59d847701d7, type: 2}
      propertyPath: m_LocalPosition.y
      value: 0
      objectReference: {fileID: 0}
    - target: {fileID: 4650017824234140, guid: abbc1cb75e6a4ad4fbaad59d847701d7, type: 2}
      propertyPath: m_LocalPosition.z
      value: 0
      objectReference: {fileID: 0}
    - target: {fileID: 4650017824234140, guid: abbc1cb75e6a4ad4fbaad59d847701d7, type: 2}
      propertyPath: m_LocalRotation.x
      value: 0
      objectReference: {fileID: 0}
    - target: {fileID: 4650017824234140, guid: abbc1cb75e6a4ad4fbaad59d847701d7, type: 2}
      propertyPath: m_LocalRotation.y
      value: 0
      objectReference: {fileID: 0}
    - target: {fileID: 4650017824234140, guid: abbc1cb75e6a4ad4fbaad59d847701d7, type: 2}
      propertyPath: m_LocalRotation.z
      value: 0
      objectReference: {fileID: 0}
    - target: {fileID: 4650017824234140, guid: abbc1cb75e6a4ad4fbaad59d847701d7, type: 2}
      propertyPath: m_LocalRotation.w
      value: 1
      objectReference: {fileID: 0}
    - target: {fileID: 4650017824234140, guid: abbc1cb75e6a4ad4fbaad59d847701d7, type: 2}
      propertyPath: m_RootOrder
      value: 4
      objectReference: {fileID: 0}
    m_RemovedComponents: []
  m_SourcePrefab: {fileID: 100100000, guid: abbc1cb75e6a4ad4fbaad59d847701d7, type: 2}
  m_IsPrefabAsset: 0
--- !u!114 &758890923 stripped
MonoBehaviour:
  m_CorrespondingSourceObject: {fileID: 114322617617327302, guid: 71f677c882f3fd546a3a562625c228ef,
    type: 2}
  m_PrefabInternal: {fileID: 671810669}
  m_Script: {fileID: 11500000, guid: 344b5adb330c60942a9e2bef2d60886f, type: 3}
--- !u!1001 &1139038865
Prefab:
  m_ObjectHideFlags: 0
  serializedVersion: 2
  m_Modification:
    m_TransformParent: {fileID: 0}
    m_Modifications:
    - target: {fileID: 4977675397249812, guid: 05edfced85449ab4db0d0a14e5acb52c, type: 2}
      propertyPath: m_LocalPosition.x
      value: 0
      objectReference: {fileID: 0}
    - target: {fileID: 4977675397249812, guid: 05edfced85449ab4db0d0a14e5acb52c, type: 2}
      propertyPath: m_LocalPosition.y
      value: 0
      objectReference: {fileID: 0}
    - target: {fileID: 4977675397249812, guid: 05edfced85449ab4db0d0a14e5acb52c, type: 2}
      propertyPath: m_LocalPosition.z
      value: 0
      objectReference: {fileID: 0}
    - target: {fileID: 4977675397249812, guid: 05edfced85449ab4db0d0a14e5acb52c, type: 2}
      propertyPath: m_LocalRotation.x
      value: 0
      objectReference: {fileID: 0}
    - target: {fileID: 4977675397249812, guid: 05edfced85449ab4db0d0a14e5acb52c, type: 2}
      propertyPath: m_LocalRotation.y
      value: 0
      objectReference: {fileID: 0}
    - target: {fileID: 4977675397249812, guid: 05edfced85449ab4db0d0a14e5acb52c, type: 2}
      propertyPath: m_LocalRotation.z
      value: 0
      objectReference: {fileID: 0}
    - target: {fileID: 4977675397249812, guid: 05edfced85449ab4db0d0a14e5acb52c, type: 2}
      propertyPath: m_LocalRotation.w
      value: 1
      objectReference: {fileID: 0}
    - target: {fileID: 4977675397249812, guid: 05edfced85449ab4db0d0a14e5acb52c, type: 2}
      propertyPath: m_RootOrder
      value: 1
      objectReference: {fileID: 0}
    - target: {fileID: 114710139514626236, guid: 05edfced85449ab4db0d0a14e5acb52c,
        type: 2}
      propertyPath: cameraManager
      value: 
      objectReference: {fileID: 1958031845}
    m_RemovedComponents: []
  m_SourcePrefab: {fileID: 100100000, guid: 05edfced85449ab4db0d0a14e5acb52c, type: 2}
  m_IsPrefabAsset: 0
--- !u!1001 &1199379394
Prefab:
  m_ObjectHideFlags: 0
  serializedVersion: 2
  m_Modification:
    m_TransformParent: {fileID: 0}
    m_Modifications:
    - target: {fileID: 4934667997603458, guid: c6f6fa349362614489fb5a5b5f6fec58, type: 2}
      propertyPath: m_LocalPosition.x
      value: 0
      objectReference: {fileID: 0}
    - target: {fileID: 4934667997603458, guid: c6f6fa349362614489fb5a5b5f6fec58, type: 2}
      propertyPath: m_LocalPosition.y
      value: 0
      objectReference: {fileID: 0}
    - target: {fileID: 4934667997603458, guid: c6f6fa349362614489fb5a5b5f6fec58, type: 2}
      propertyPath: m_LocalPosition.z
      value: 0
      objectReference: {fileID: 0}
    - target: {fileID: 4934667997603458, guid: c6f6fa349362614489fb5a5b5f6fec58, type: 2}
      propertyPath: m_LocalRotation.x
      value: 0
      objectReference: {fileID: 0}
    - target: {fileID: 4934667997603458, guid: c6f6fa349362614489fb5a5b5f6fec58, type: 2}
      propertyPath: m_LocalRotation.y
      value: 0
      objectReference: {fileID: 0}
    - target: {fileID: 4934667997603458, guid: c6f6fa349362614489fb5a5b5f6fec58, type: 2}
      propertyPath: m_LocalRotation.z
      value: 0
      objectReference: {fileID: 0}
    - target: {fileID: 4934667997603458, guid: c6f6fa349362614489fb5a5b5f6fec58, type: 2}
      propertyPath: m_LocalRotation.w
      value: 1
      objectReference: {fileID: 0}
    - target: {fileID: 4934667997603458, guid: c6f6fa349362614489fb5a5b5f6fec58, type: 2}
      propertyPath: m_RootOrder
      value: 5
      objectReference: {fileID: 0}
    m_RemovedComponents: []
  m_SourcePrefab: {fileID: 100100000, guid: c6f6fa349362614489fb5a5b5f6fec58, type: 2}
  m_IsPrefabAsset: 0
--- !u!1001 &1409978790
Prefab:
  m_ObjectHideFlags: 0
  serializedVersion: 2
  m_Modification:
    m_TransformParent: {fileID: 0}
    m_Modifications:
    - target: {fileID: 4660070748526380, guid: bb6c8470fd6ad1341bf8b79250ebe462, type: 2}
      propertyPath: m_LocalPosition.x
      value: 0
      objectReference: {fileID: 0}
    - target: {fileID: 4660070748526380, guid: bb6c8470fd6ad1341bf8b79250ebe462, type: 2}
      propertyPath: m_LocalPosition.y
      value: 0
      objectReference: {fileID: 0}
    - target: {fileID: 4660070748526380, guid: bb6c8470fd6ad1341bf8b79250ebe462, type: 2}
      propertyPath: m_LocalPosition.z
      value: 0
      objectReference: {fileID: 0}
    - target: {fileID: 4660070748526380, guid: bb6c8470fd6ad1341bf8b79250ebe462, type: 2}
      propertyPath: m_LocalRotation.x
      value: 0
      objectReference: {fileID: 0}
    - target: {fileID: 4660070748526380, guid: bb6c8470fd6ad1341bf8b79250ebe462, type: 2}
      propertyPath: m_LocalRotation.y
      value: 0
      objectReference: {fileID: 0}
    - target: {fileID: 4660070748526380, guid: bb6c8470fd6ad1341bf8b79250ebe462, type: 2}
      propertyPath: m_LocalRotation.z
      value: 0
      objectReference: {fileID: 0}
    - target: {fileID: 4660070748526380, guid: bb6c8470fd6ad1341bf8b79250ebe462, type: 2}
      propertyPath: m_LocalRotation.w
      value: 1
      objectReference: {fileID: 0}
    - target: {fileID: 4660070748526380, guid: bb6c8470fd6ad1341bf8b79250ebe462, type: 2}
      propertyPath: m_RootOrder
      value: 2
      objectReference: {fileID: 0}
    - target: {fileID: 223836483099800598, guid: bb6c8470fd6ad1341bf8b79250ebe462,
        type: 2}
      propertyPath: m_Camera
      value: 
      objectReference: {fileID: 1470790318}
    - target: {fileID: 223322461222318820, guid: bb6c8470fd6ad1341bf8b79250ebe462,
        type: 2}
      propertyPath: m_Camera
      value: 
      objectReference: {fileID: 1470790318}
    - target: {fileID: 114647864090874988, guid: bb6c8470fd6ad1341bf8b79250ebe462,
        type: 2}
      propertyPath: m_OnClick.m_PersistentCalls.m_Calls.Array.data[0].m_Target
      value: 
      objectReference: {fileID: 758890923}
    - target: {fileID: 114028935373527054, guid: bb6c8470fd6ad1341bf8b79250ebe462,
        type: 2}
      propertyPath: m_OnClick.m_PersistentCalls.m_Calls.Array.data[0].m_Target
      value: 
      objectReference: {fileID: 758890923}
    m_RemovedComponents: []
  m_SourcePrefab: {fileID: 100100000, guid: bb6c8470fd6ad1341bf8b79250ebe462, type: 2}
  m_IsPrefabAsset: 0
--- !u!20 &1470790318 stripped
Camera:
  m_CorrespondingSourceObject: {fileID: 20339886389628114, guid: 23f07fdd222d417468527642025566ab,
    type: 2}
  m_PrefabInternal: {fileID: 447347164}
--- !u!114 &1958031845 stripped
MonoBehaviour:
  m_CorrespondingSourceObject: {fileID: 114573285914086462, guid: 23f07fdd222d417468527642025566ab,
    type: 2}
  m_PrefabInternal: {fileID: 447347164}
  m_Script: {fileID: 11500000, guid: 2f59b9720f34f4f4a8d76b5cd0b73ecf, type: 3}
